…
You can read the results in R using:
```R
param <- readRDS("<run_dir>/parameter.rds")
simul <- readRDS("<run_dir>/simulation.rds")
```
where `<run_dir>` is run directory defined in the `<exp.json>` file. 

An example of parameter values is:
```R
param
# A tibble: 100 × 2
       CN2 ALPHA_BF
     <dbl>    <dbl>
 1   9.63    0.941 
 2 -11.2     0.329 
 3 -11.8     0.0926
 4  -3.25    0.445 
 5  -7.36    0.383 
 6 -10.6     0.945 
 7   0.917   0.133 
 8 -10.3     0.321 
 9 -14.2     0.893 
10  -2.70    0.802 
# … with 90 more rows
```
…
